{
  "$schema": "https://typedoc.org/schema.json",
  "out": "docs",
  "tsconfig": "jsconfig.json",
  "name": "Pathfinder 1e for Foundry VTT",
  "logLevel": "Error",
  "emit": "docs",
  "basePath": ".",
  "externalPattern": ["@foundry/**/*.mjs", "node_modules/**/*", "foundry/**/*.*"],
  "excludeExternals": true,
  "internalModule": "<types>",
  "entryPoints": ["hooks.d.ts", "pf1.mjs"],
  "compilerOptions": {
    "checkJs": false
  },
  "sidebarLinks": {
    "Repository": "https://gitlab.com/foundryvtt_pathfinder1e/foundryvtt-pathfinder1"
  },
  "navigationLinks": {
    "Repository": "https://gitlab.com/foundryvtt_pathfinder1e/foundryvtt-pathfinder1"
  }
}
