{
  "message": "Renamed _Silverdisk_ to _Destroyed Battery_, gave _Battery_ its own unidentified name, and updated unidentified description of both batteries.",
  "type": "Compendium",
  "issue": "4037"
}
